…
```r
# 2.  Arrange the data you produced in step 1 above by `Count`. 
#     In which year was the name most popular?
```


```r
arrange(baby_names_george, desc(Count))
```

```
## # A tibble: 111 x 4
##    Name   Sex   Count  Year
##    <chr>  <chr> <dbl> <dbl>
##  1 George Boys  14063  1960
##  2 George Boys  13638  1961
##  3 George Boys  12553  1962
##  4 George Boys  12084  1963
##  5 George Boys  11793  1964
##  6 George Boys  10683  1965
##  7 George Boys   9942  1966
##  8 George Boys   9702  1967
##  9 George Boys   9388  1968
## 10 George Boys   9203  1969
## # … with 101 more rows
```
…
<details>
  <summary>Click for Solution</summary>
Exercise 2.2 solution
----------------------------------------------------------------------


```r
baby_names %>% 
  filter(Name == "George") %>%
  arrange(desc(Count))
```

```
## # A tibble: 111 x 4
##    Name   Sex   Count  Year
##    <chr>  <chr> <dbl> <dbl>
##  1 George Boys  14063  1960
##  2 George Boys  13638  1961
##  3 George Boys  12553  1962
##  4 George Boys  12084  1963
##  5 George Boys  11793  1964
##  6 George Boys  10683  1965
##  7 George Boys   9942  1966
##  8 George Boys   9702  1967
##  9 George Boys   9388  1968
## 10 George Boys   9203  1969
## # … with 101 more rows
```
…
The `mutate()` function makes it easy to add or modify the columns 
of a `data.frame`. For example, we can use it to rescale each given 
number of names in each year:


```r
baby_names <- mutate(baby_names, Count_1K = Count/1000)
baby_names # same as print(baby_names)
```

```
## # A tibble: 1,352,203 x 5
##    Name     Sex   Count  Year Count_1K
##    <chr>    <chr> <dbl> <dbl>    <dbl>
##  1 Mary     Girls 51474  1960     51.5
##  2 Susan    Girls 39200  1960     39.2
##  3 Linda    Girls 37314  1960     37.3
##  4 Karen    Girls 36376  1960     36.4
##  5 Donna    Girls 34133  1960     34.1
##  6 Lisa     Girls 33702  1960     33.7
##  7 Patricia Girls 32102  1960     32.1
##  8 Debra    Girls 26737  1960     26.7
##  9 Cynthia  Girls 26725  1960     26.7
## 10 Deborah  Girls 25264  1960     25.3
## # … with 1,352,193 more rows
```
…
```r
## 3.  Filter the baby names data to display only the most popular name 
##     for each `Year X Sex` group. Output columns Name, Sex, and Proportion.
```


```r
top1 <- filter(baby_names, Rank == 1)
top1 %>% 
  select(Name, Sex, Proportion)
```

```
## # A tibble: 116 x 3
##    Name    Sex   Proportion
##    <chr>   <chr>      <dbl>
##  1 Mary    Girls     0.0255
##  2 David   Boys      0.0403
##  3 Mary    Girls     0.0236
##  4 Michael Boys      0.0409
##  5 Lisa    Girls     0.0234
##  6 Michael Boys      0.0411
##  7 Lisa    Girls     0.0291
##  8 Michael Boys      0.0412
##  9 Lisa    Girls     0.0286
## 10 Michael Boys      0.0415
## # … with 106 more rows
```
…
```r
most_popular <- 
  baby_names %>% 
  group_by(Year, Sex) %>%
  filter(Rank <= 10)

most_popular
```

```
## # A tibble: 1,160 x 7
## # Groups:   Year, Sex [116]
##    Name     Sex   Count  Year Count_1K Proportion  Rank
##    <chr>    <chr> <dbl> <dbl>    <dbl>      <dbl> <dbl>
##  1 Mary     Girls 51474  1960     51.5     0.0255     1
##  2 Susan    Girls 39200  1960     39.2     0.0194     2
##  3 Linda    Girls 37314  1960     37.3     0.0185     3
##  4 Karen    Girls 36376  1960     36.4     0.0180     4
##  5 Donna    Girls 34133  1960     34.1     0.0169     5
##  6 Lisa     Girls 33702  1960     33.7     0.0167     6
##  7 Patricia Girls 32102  1960     32.1     0.0159     7
##  8 Debra    Girls 26737  1960     26.7     0.0132     8
##  9 Cynthia  Girls 26725  1960     26.7     0.0132     9
## 10 Deborah  Girls 25264  1960     25.3     0.0125    10
## # … with 1,150 more rows
```
…
